[
  {
    "anonymous": false,
    "inputs": [
      {
        "indexed": false,
        "name": "index",
        "type": "uint256"
      },
      {
        "indexed": true,
        "name": "libraryAddress",
        "type": "address"
      },
      {
        "indexed": false,
        "name": "curveFunction",
        "type": "string"
      }
    ],
    "name": "CurveRegisterd",
    "type": "event"
  },
  {
    "constant": false,
    "inputs": [
      {
        "name": "_libraryAddress",
        "type": "address"
      },
      {
        "name": "_curveFunction",
        "type": "string"
      }
    ],
    "name": "registerCurve",
    "outputs": [
      {
        "name": "",
        "type": "uint256"
      }
    ],
    "payable": false,
    "stateMutability": "nonpayable",
    "type": "function"
  },
  {
    "constant": false,
    "inputs": [
      {
        "name": "_index",
        "type": "uint256"
      }
    ],
    "name": "reactivateCurve",
    "outputs": [],
    "payable": false,
    "stateMutability": "nonpayable",
    "type": "function"
  },
  {
    "constant": false,
    "inputs": [
      {
        "name": "_index",
        "type": "uint256"
      }
    ],
    "name": "deactivateCurve",
    "outputs": [],
    "payable": false,
    "stateMutability": "nonpayable",
    "type": "function"
  },
  {
    "constant": true,
    "inputs": [
      {
        "name": "_index",
        "type": "uint256"
      }
    ],
    "name": "getCurveAddress",
    "outputs": [
      {
        "name": "",
        "type": "address"
      }
    ],
    "payable": false,
    "stateMutability": "view",
    "type": "function"
  },
  {
    "constant": true,
    "inputs": [
      {
        "name": "_index",
        "type": "uint256"
      }
    ],
    "name": "getCurveData",
    "outputs": [
      {
        "name": "",
        "type": "address"
      },
      {
        "name": "",
        "type": "string"
      },
      {
        "name": "",
        "type": "bool"
      }
    ],
    "payable": false,
    "stateMutability": "view",
    "type": "function"
  },
  {
    "constant": true,
    "inputs": [],
    "name": "getIndex",
    "outputs": [
      {
        "name": "",
        "type": "uint256"
      }
    ],
    "payable": false,
    "stateMutability": "view",
    "type": "function"
  },
  {
    "constant": true,
    "inputs": [],
    "name": "publishedBlocknumber",
    "outputs": [
      {
        "name": "",
        "type": "uint256"
      }
    ],
    "payable": false,
    "stateMutability": "view",
    "type": "function"
  }
]